Data Processing – Project 1 Site
…
Great, now that we have confirmed the API is returning as expected, we can test our next helper function that takes the json and turns it into a tibble.

census_data <- json_to_tibble(json)

Warning: The `x` argument of `as_tibble.matrix()` must have unique column names if
`.name_repair` is omitted as of tibble 2.0.0.
ℹ Using compatibility `.name_repair`.

census_data

# A tibble: 44,079 × 4
   SEX   PWGTP MAR   SCHL 
   <chr> <chr> <chr> <chr>
 1 2     6     5     24   
 2 2     23    2     24   
 3 1     23    3     24   
 4 1     80    5     24   
 5 1     16    1     24   
 6 1     107   3     24   
 7 2     10    5     24   
 8 1     22    1     24   
 9 2     127   5     24   
10 2     46    5     24   
# ℹ 44,069 more rows
…
 $ url        : chr "https://api.census.gov/data/2022/acs/acs1/pums?get=PWGTP,JWAP,JWDP,SEX&for=state:15"
 $ status_code: int 200
 $ headers    :List of 11
  ..- attr(*, "class")= chr [1:2] "insensitive" "list"
 $ all_headers:List of 1
 $ cookies    :'data.frame':    1 obs. of  7 variables:
 $ content    : raw [1:394310] 5b 5b 22 50 ...
 $ date       : POSIXct[1:1], format: "2025-09-26 19:07:19"
 $ times      : Named num [1:6] 0 0.000113 0 0.000204 0.375916 ...
  ..- attr(*, "names")= chr [1:6] "redirect" "namelookup" "connect" "pretransfer" ...
 $ request    :List of 7
  ..- attr(*, "class")= chr "request"
 $ handle     :Class 'curl_handle' <externalptr> 
 - attr(*, "class")= chr "response"
# A tibble: 14,995 × 5
   PWGTP JWAP  JWDP  SEX   state
   <chr> <chr> <chr> <chr> <chr>
 1 94    107   67    1     15   
 2 55    0     0     1     15   
 3 41    77    37    1     15   
 4 38    0     0     1     15   
 5 11    0     0     1     15   
 6 69    0     0     1     15   
 7 3     0     0     2     15   
 8 13    0     0     1     15   
 9 16    0     0     2     15   
10 30    77    37    1     15   
# ℹ 14,985 more rows
…
print(final_tbl)

# A tibble: 56,886 × 6
   PWGTP JWAP  JWDP  SEX   state  year
   <chr> <chr> <chr> <chr> <chr> <int>
 1 93    79    37    1     15     2012
 2 58    157   97    2     15     2012
 3 45    79    37    2     15     2012
 4 27    122   79    2     15     2012
 5 25    112   70    1     15     2012
 6 50    0     0     2     15     2012
 7 48    0     0     1     15     2012
 8 57    103   61    1     15     2012
 9 54    103   61    2     15     2012
10 49    0     0     1     15     2012
# ℹ 56,876 more rows
